<?xml version="1.0" encoding="UTF-8" standalone="no"?>
<!DOCTYPE svg PUBLIC "-//W3C//DTD SVG 1.1//EN"
 "http://www.w3.org/Graphics/SVG/1.1/DTD/svg11.dtd">
<!-- Generated by graphviz version 2.40.1 (20161225.0304)
 -->
<!-- Title: models_diagram Pages: 1 -->
<svg width="477pt" height="230pt"
 viewBox="0.00 0.00 477.34 230.00" xmlns="http://www.w3.org/2000/svg" xmlns:xlink="http://www.w3.org/1999/xlink">
<g id="graph0" class="graph" transform="scale(1 1) rotate(0) translate(4 226)">
<title>models_diagram</title>
<polygon fill="transparent" stroke="transparent" points="-4,4 -4,-226 473.3431,-226 473.3431,4 -4,4"/>
<!-- _diagram_info -->
<g id="node1" class="node">
<title>_diagram_info</title>
<text text-anchor="start" x="8" y="-207.6" font-family="Times,serif" font-size="13.00" fill="#000000">Models diagram</text>
<text text-anchor="start" x="8" y="-193.6" font-family="Times,serif" font-size="13.00" fill="#000000">Date: Dec 03 2019 &#45; 00:01</text>
<text text-anchor="start" x="8" y="-179.6" font-family="Times,serif" font-size="13.00" fill="#000000">Migration version: 20191202150917</text>
<text text-anchor="start" x="8" y="-165.6" font-family="Times,serif" font-size="13.00" fill="#000000">Generated by RailRoady 1.5.3</text>
<text text-anchor="start" x="8" y="-151.6" font-family="Times,serif" font-size="13.00" fill="#000000">http://railroady.prestonlee.com</text>
</g>
<!-- Offered -->
<g id="node2" class="node">
<title>Offered</title>
<ellipse fill="none" stroke="#000000" cx="225" cy="-18" rx="38.1938" ry="18"/>
<text text-anchor="middle" x="225" y="-14.3" font-family="Times,serif" font-size="14.00" fill="#000000">Offered</text>
</g>
<!-- Wanted -->
<g id="node3" class="node">
<title>Wanted</title>
<ellipse fill="none" stroke="#000000" cx="328" cy="-18" rx="38.1938" ry="18"/>
<text text-anchor="middle" x="328" y="-14.3" font-family="Times,serif" font-size="14.00" fill="#000000">Wanted</text>
</g>
<!-- User -->
<g id="node4" class="node">
<title>User</title>
<ellipse fill="none" stroke="#000000" cx="264" cy="-90" rx="27.0966" ry="18"/>
<text text-anchor="middle" x="264" y="-86.3" font-family="Times,serif" font-size="14.00" fill="#000000">User</text>
</g>
<!-- User&#45;&gt;Offered -->
<g id="edge1" class="edge">
<title>User&#45;&gt;Offered</title>
<path fill="none" stroke="#9d1046" d="M250.8517,-65.7263C247.1883,-58.9629 243.189,-51.5797 239.4548,-44.6857"/>
<ellipse fill="none" stroke="#9d1046" cx="252.8524" cy="-69.4198" rx="4" ry="4"/>
<polygon fill="#9d1046" stroke="#9d1046" points="239.3463,-44.4854 238.5402,-33.5491 236.9648,-40.0889 234.5834,-35.6924 234.5834,-35.6924 234.5834,-35.6924 236.9648,-40.0889 230.6266,-37.8357 239.3463,-44.4854 239.3463,-44.4854"/>
</g>
<!-- User&#45;&gt;Wanted -->
<g id="edge2" class="edge">
<title>User&#45;&gt;Wanted</title>
<path fill="none" stroke="#49129f" d="M283.2628,-68.3293C290.4918,-60.1967 298.7572,-50.8982 306.2003,-42.5246"/>
<ellipse fill="none" stroke="#49129f" cx="280.5445" cy="-71.3874" rx="4" ry="4"/>
<polygon fill="#49129f" stroke="#49129f" points="306.3802,-42.3222 316.3872,-37.8378 309.7021,-38.5852 313.0239,-34.8481 313.0239,-34.8481 313.0239,-34.8481 309.7021,-38.5852 309.6605,-31.8585 306.3802,-42.3222 306.3802,-42.3222"/>
</g>
<!-- User&#45;&gt;User -->
<g id="edge3" class="edge">
<title>User&#45;&gt;User</title>
<path fill="none" stroke="#71999e" d="M294.2381,-103.4356C302.7552,-102.8567 309.2976,-98.3782 309.2976,-90 309.2976,-81.6218 302.7552,-77.1433 294.2381,-76.5644"/>
<polygon fill="#71999e" stroke="#71999e" points="293.9787,-103.4101 284.4667,-97.9537 289.0026,-102.9211 284.0266,-102.4321 284.0266,-102.4321 284.0266,-102.4321 289.0026,-102.9211 283.5865,-106.9106 293.9787,-103.4101 293.9787,-103.4101"/>
<polygon fill="#71999e" stroke="#71999e" points="293.9787,-76.5899 283.5865,-73.0894 289.0026,-77.0789 284.0266,-77.5679 284.0266,-77.5679 284.0266,-77.5679 289.0026,-77.0789 284.4667,-82.0463 293.9787,-76.5899 293.9787,-76.5899"/>
</g>
<!-- ApplicationRecord -->
<g id="node5" class="node">
<title>ApplicationRecord</title>
<ellipse fill="none" stroke="#000000" cx="392" cy="-183" rx="77.1866" ry="18"/>
<text text-anchor="middle" x="392" y="-179.3" font-family="Times,serif" font-size="14.00" fill="#000000">ApplicationRecord</text>
</g>
<!-- Game -->
<g id="node6" class="node">
<title>Game</title>
<ellipse fill="none" stroke="#000000" cx="264" cy="-183" rx="32.4942" ry="18"/>
<text text-anchor="middle" x="264" y="-179.3" font-family="Times,serif" font-size="14.00" fill="#000000">Game</text>
</g>
<!-- Game&#45;&gt;Offered -->
<g id="edge4" class="edge">
<title>Game&#45;&gt;Offered</title>
<path fill="none" stroke="#fbd082" d="M249.2523,-158.8778C241.3647,-144.6277 232.3929,-125.9182 228,-108 223.0444,-87.7863 222.4315,-64.2578 222.9849,-46.3282"/>
<ellipse fill="none" stroke="#fbd082" cx="251.2689" cy="-162.4194" rx="4" ry="4"/>
<polygon fill="#fbd082" stroke="#fbd082" points="222.9898,-46.2174 227.932,-36.4284 223.2131,-41.2224 223.4365,-36.2273 223.4365,-36.2273 223.4365,-36.2273 223.2131,-41.2224 218.941,-36.0263 222.9898,-46.2174 222.9898,-46.2174"/>
</g>
<!-- Game&#45;&gt;Wanted -->
<g id="edge5" class="edge">
<title>Game&#45;&gt;Wanted</title>
<path fill="none" stroke="#3cb472" d="M284.6667,-160.8312C296.4999,-146.7798 310.4547,-127.6081 318,-108 325.5632,-88.3454 327.9493,-64.6171 328.5055,-46.46"/>
<ellipse fill="none" stroke="#3cb472" cx="282.0262" cy="-163.8846" rx="4" ry="4"/>
<polygon fill="#3cb472" stroke="#3cb472" points="328.5087,-46.2231 333.1457,-36.2859 328.5774,-41.2236 328.6461,-36.224 328.6461,-36.224 328.6461,-36.224 328.5774,-41.2236 324.1466,-36.1622 328.5087,-46.2231 328.5087,-46.2231"/>
</g>
<!-- Game&#45;&gt;User -->
<g id="edge6" class="edge">
<title>Game&#45;&gt;User</title>
<path fill="none" stroke="#171095" d="M264,-154.2666C264,-142.8274 264,-129.6997 264,-118.3034"/>
<polygon fill="#171095" stroke="#171095" points="264.0001,-154.6262 259.5,-164.6261 264,-159.6262 264,-164.6262 264,-164.6262 264,-164.6262 264,-159.6262 268.5,-164.6262 264.0001,-154.6262 264.0001,-154.6262"/>
<polygon fill="#171095" stroke="#171095" points="264.0001,-118.0192 268.5,-108.0191 264,-113.0192 264,-108.0192 264,-108.0192 264,-108.0192 264,-113.0192 259.5,-108.0192 264.0001,-118.0192 264.0001,-118.0192"/>
</g>
</g>
</svg>
